Date,Days,City,Country,Continent,Name,Speakers,Total Price,Link,Note
"Jun 7-8, 2018",2,"SF, CA",USA,North America,Tulip Next-Gen Blockchain and Digital Currencies Conference,66,299 $,https://tulipconf.com/,"Speakers from: Mattereum, MIA UK, TrueBlock.io, Cryptoversity, Department of Computing Imperial College London, Ripple, IBM, Oracle, EOS, ..."
8-Jun-18,1,Mumbai,India,Asia,Tresconglobal,27,Free,https://www.bigbfsitechshow.com/,"Speakers from: BSE ltd, AXA General Insurance, Liberty Insurance, DCB Bank, HDFC Credila, ..."
"Jun 9-12, 2018",4,Tel Aviv,Israel,Asia,D10e Tel Aviv,14,495 $,http://d10e.biz/tel-aviv-2018/,"Viola Tech, Stox, KrowdMentor, Hosho, Bancor, Tether, ..."
9-Jun-18,1,"San Jose, CA",USA,North America,"GITPRO World Conference: AI, Blockchain, IOT, & Trending Technologies",30,86.51 $,https://www.eventbrite.com/e/gitpro-world-conference-ai-blockchain-iot-trending-technologies-tickets-44963353601?aff=es2,"Speakers from: Oracle, TED, Paypal, Uber, Intel Capital, ..."
11-Jun-18,1,Frankfurt,Germany,Europe,Crypto Asset Valuation: New Age of Data Science & Financial Analysis,1,Free,https://www.meetup.com/de-DE/FrankfurtDataScience/events/251121770/,"Santiment organizing.
NOT a conference though."
11-Jun-18,1,NYC,USA,North America,Security Token Summit: Exchanges & Trading Platforms Take on Wall Street,N/A,Sales ended,https://www.eventbrite.com/e/security-token-summit-exchanges-trading-platforms-take-on-wall-street-tickets-44998009257,"Sold out! This event is about the third generation of financial infrastructure which may have a transformative and disruptive effect for new issuances (ICOs, IPOs), and supports the tokenization of assets such as real estate, equity and debt.

"
11-Jun-18,1,"SF, CA",USA,North America,Designing in a Brave new World: Blockchain + Crypto,N/A,22.99 $,https://www.eventbrite.com/e/designing-in-a-brave-new-world-blockchain-crypto-tickets-43406112852?aff=es2,"We are a design team responsible for the global brand, product design, and UX/UI for Ripple, enabling the world to move money like information moves today. "
11-Jun-18,1,London,UK,Europe,Fuelling collaboration: China & UK Blockchain,8,Free,https://www.eventbrite.co.uk/e/fuelling-collaboration-china-uk-blockchain-tickets-45765741565?aff=eac2,Looks quite low key
11-Jun-18,1,NYC,USA,North America,World Blockchain Forum NY,50,"1,000 $",https://newyork.keynote.ae/,"Speakers from: RSK Labs, VideoCoin Network, Indiegogo, ConsesSys, AlphaPoint, Bitcoin.com, Qtum, Edge, Polymath, Dapp, ..."
"Jun 11-12, 2018",2,"Mountain View, CA",USA,North America,CPC Crypto Developers Conference,27,999 $,https://www.eventbrite.com/e/cpc-crypto-developers-conference-tickets-46258404132?aff=es2,"Speakers from Algorand, UC Berkeley, NYC University, NEO, Binance Labs, 0Chain, ChainB, 0x Protocol, ..."
"Jun 11-12, 2018",2,NYC,USA,North America,Bitcoin and Cryptocurrency Investment Summit,28,949 $ ,https://www.bcisummit.com/,"Speakers from: Bitcoin Foundation, NYMEX, Electroneum, CME Group, IBM, Cointelegraph, Dash, BlockTower Capital, CoVenture Crypto, ..."
"Jun 11-12, 2018",2,"Boston, MA",USA,North America,Second Annual Healthcare Blockchain Summit,43,"1,095 $",http://tcbi.org/hcblockchainplatform/,"Speakers from: Nexus, Hashed Health, Phirblocks Project, Blockchain Infosys, Harvard, Optum, ..."
"Jun 11-13, 2018",3,Dublin,Ireland,Europe,MoneyConf 2018,120,"1,495 EUR",https://moneyconf.com/,"Mostly financial companies, tech companies but also crypto companies such as Ripple or Coindesk"
"Jun 11-15, 2018",5,"Edgartown, MA",USA,North America,Martha's Vineyard Cryptocurrency Symposium,N/A,250 $,https://www.eventbrite.com/e/marthas-vineyard-cryptocurrency-symposium-june-11-14-2018-registration-43420089657,"This conference will explore the potential of this new asset class by bringing together experts in the space. The format for the meeting will be plenary sessions Tuesday, and Wednesday all day"
12-Jun-18,1,London,UK,Europe,ICO Expo,N/A,N/A,http://icoexpo.io/,Website not displaying any info. Quick google search didnt reveal anything more.
"Jun 12-13, 2018",2,Zug,Switzerland,Europe,Crypto World Zug,15,349 CHF,https://cryptoworldzug.io/,Quality speakers from blockchain industry and successful entrepreneurs.
12-Jun-18,1,"SF, CA",USA,North America,"Crypto Underground: Token Design with Rob Massey, Deloitte & Sarah Hody, Perkins Coie",2,Free,https://www.eventbrite.com/e/crypto-underground-token-design-with-rob-massey-deloitte-sarah-hody-perkins-coie-tickets-46673883843?aff=es2,"Leading experts in the blockchain space, will be diving deep into the legal and tax implications of blockchain projects and best practices for designing tokens and ICO’s."
13-Jun-18,1,Ontario,Canada,North America,Blockchain Super Conference,19,99 $,https://blockchainsuperconference.com/,"Speakers such as / from: Mike Lorrey (blockchain pioneer), Pegasus Fintech, Cervin Ventuires, Hyperledger, Crypto Bazar, Midex, BTCDraft, ..."
13-Jun-18,1,Sydney,Australia,Australia,Blockchain Conference,4,658 $,https://www.eventbrite.com/e/blockchain-conference-tickets-46223435540?aff=es2,"Speakers from: ScalaMed, CryptoHub, Unisys, GoSmartChain"
13-Jun-18,1,London,UK,Europe,CryptoCompare & MJAC London Blockchain Summit,18,"75 £ (Early Bird 
Ticket)",https://mjac.io/,Speakers from within blockchain indstury and some successfull start ups. 
"Jun 13-14, 2018",2,Hong Kong,China,Asia,121 Tech Investment,43,"Free for 
Investors",https://www.weare121.com/121techinvestment-hk/,"35 tech companies will join 220 sophisticated investors in Hong Kong for over 600 pre-arranged, targeted 1-2-1 investment meetings at 121 Tech Investment Hong Kong."
14-Jun-18,1,NYC,USA,North America,Blockchain Healthcare Summit,21,999 $,http://blockchainhealthsummit.com/,Chain Reaction Blockchain Healthcare Summit will bring you some of today's most compelling and sought after thought-leaders with a proven record of leadership and innovation across the healthcare continuum.
14-Jun-18,1,Astana,Kazakhstan,Asia,Blockchain Conference Astana,20,150 $,https://bconference.kz/,"Speakers from: Kuna Exchange, Deloitte, Remme, CoinIndex.agency, AIFC,  Association Community Blockchain KZ, Emercoin, ..."
14-Jun-18,1,"Silicon Valley, CA",USA,North America,Golden Token Awards 2018,2,Free,https://www.goldentokenawards.com/,The Golden Token Awards honors the best of blockchain by recognizing the most promising blockchain enthusiasts and companies utilizing blockchain technology.
14-Jun-18,1,"Washington, D.C",USA,North America,Capitol Crypto,4,Free,https://www.msk.com/newsroom-events-1106,"This will be a one-of-a-kind event featuring cryptocurrrency experts from the SEC and CFTC, as well as Rep. Sean Duffy (R-WI) and Nimish Patel, MSK Vice Chairman & head of our Crypto Assets & Blockchain Technology Practice."
14-Jun-18,1,Toronto,Canada,North America,Blockchain In Healthcare,20,995 CA$,https://www.blockchainhealthcare-canada.com/,"Speakers from: HealthSapiens, Thingyfy, Peel Senior Link, BlockX Labs, Harvard, Bowhead Health, The BlockchainHub, ..."
14-Jun-18,1,London,UK,Europe,BitcoinCRE,21,"192 $ 
",http://getbitcoincre.com,"BitcoinCRE attracts the best minds in the blockchain and real estate space. People from venture capital world, startup founders, academics and government officials."
"Jun 14-15, 2018",2,"LA, CA",USA,North America,Crypto Funding Summit - Silicon Valley,N/A,N/A,"https://www.cryptofundingsummit.com/
https://www.eventa.us/events/santa-clara-ca/crypto-funding-summit-silicon-valley-2018","Past speakers from: Zero-one Capital, Republic Crypto, MT Digital Assets, Black Rabbit Holdings, ShipChain, Zfounder Ventures, ..."
"Jun 14-15, 2018",2,NYC,USA,North America,Crypto Hedge Fund & Family Office Symposium,5,"Invitation 
only",http://corporateconnect.nyc/,"Speakers from: CRYSTAL RESEARCH ASSOCIATES, Bioinvest, Agecroft Partners, Jane King (lead anchor) ..."
"Jun 14-17, 2018",4,Vilnius,Lithuania,Europe,Startup Europe Blockchain Forum,20,499 EUR,https://www.blockforum.eu/,"Speakers from World Tokenomic Forum, CoinTelegraph, Evercoin, venture / capital companies or well known companies such as Electronic Arts"
15-Jun-18,1,London,UK,Europe,DMFX Financials,10+ ,Sales ended,https://dmfx-financials.com/,"Only 3.5h long. DMFX Financials is a financial events company which helps investors of all backgrounds with becoming more familiar with the cryptocurrency market trading, learning how to profit from it with ongoing conferences, workshops, tutorials and more."
15-Jun-18,1,"Palo Alto, CA",USA,North America,ParcelX Blockchain Investment Roadshow,N/A,Free,https://www.eventbrite.com/e/parcelx-blockchain-investment-roadshow-tickets-46347441445?aff=es2,"Hosted by ParcelX and GDIS (Global Disruptive Innovation Summit). The event will be an international networking bridge for crypto investors. Meet blockchain experts, network with investors, and find prominent partner among entrepreneurs."
15-Jun-18,1,"SF, CA",USA,North America,SF Blockchain Developers: Securities Summit,N/A,Free,https://www.eventbrite.com/e/sf-blockchain-developers-securities-summit-tickets-44994471676?aff=es2,"Speakers from leading blockchain companies in SF will address the changing regulatory landscape, the status of securities tokens and exchanges, and new trends in the crypto markets. "
"Jun 15-16, 2018",2,"Raleigh, NC",USA,North America,Cryptolina 2018,40,370 $,https://www.cryptolina2018.com/,"Speakers from: Fluree, SpaceChain, Morgan Creek Blockchain Capital, Agentic Group, ZenCash, EmblemVault.com, PopChest, SteemSmarter, ..."
16-Jun-18,1,Los Angeles,USA,North America,ASROC Conference,29,325 $,http://www.asroc.com/,"Speakers from: Titan Digital Exchange, Bitcoinist, IRA Bitcoin, Biterra Capital, Fund3, CryptoSym, Lunar Digital Assets, ..."
"Jun 16-19, 2018",4,"SF, CA",USA,North America,Blockchain Economic Forum,28,960 $,http://bef.latoken.com/,"Speakers: Sophia (robot), Minister of Finance (Canada), DFJ Fund, Minister of Finance (Poland), Founder of Linkedin, Floodgate, Institutional Venture Partners, Asia Fintech Angels, Bitcoin Foundation, Evercoin, ...
https://www.eventbrite.com/e/blockchain-economic-forum-2018-san-francisco-tickets-44555457573
30 % off if reserved from website"
"Jun 16-17, 2018",2,Melbourne,Australia,Australia,Bitcoin and Blockchain Fair 2018,19,250 $,https://bitcoinandblockchainfair.com/,"Speakers from: Nugget’s News, Hall and Wilcox, Biolife, Crypto News Australia, Forever Has Fallen ICO, Get Paid In Bitcoin, Entersoft, ..."
"Jun 18-19, 2018",2,London,UK,Europe,Blockchain Alternative Investment Conference,53,£1700 (approx),https://www.baiconf.com/,"focused on institutional investors, hedge funds, sovereign wealth funds, private banks,
family offices, high net worth / ultra high net worth individuals, and accredited individuals"
19-Jun-18,1,NYC,USA,North America,"Blockchain, DLT & Crypto-Assets: An in-depth course for Operations Professional Technologists",N/A,800 $ (approx),https://www.eventbrite.com/e/blockchain-dlt-crypto-assets-an-in-depth-course-for-operations-professionals-technologists-tickets-46421941276?aff=es2,"One-day educational program. Discussion topics include crypto-assets, including cryptocurrencies, and the markets and economics that support them."
19-Jun-18,1,Auckland,New Zealand,Oceania,Blockchain Technology Conference 2018,11,692 NZD,https://1point21gws.com/BlockchainSummit/auckland/,"Speakers from: Noiz, Bchain, Techgenius, NZtech, Healthdex, Mining4us, ..."
"Jun 19-20, 2018",2,NYC,USA,North America,Battle of the Quants,28,1299 $,https://battleofthequants.com/,"Speakers from: WorldQuant, Roubini Macro Associates, PanAgora Asset Management, DMS Governance, UBS, Optimal Capital, FactSet, Nasdaq, Altcoin Advisors, ..."
"Jun 19-22, 2018",3,Berlin,Germany,Europe,"The Future of Tech, Work, and Life",103,499 EUR,https://toa.berlin,"Speakers from CoinList, Ocean Protocol, Gnosis, Bancor, Codex Protocol, Golem, MelonPort, Neufund, Dfinity..."
"Jun 19-21, 2018",3,NYC,USA,North America,The Future of Fintech 2018 ,27,3795 $,https://events.cbinsights.com/future-of-fintech/nnanses,"Speakers from: Bank of America, Nasdaq, Affirm, Alipay, Marcus by Goldman Sachs, Robinhood, Ripple, Credit Karma, SoFi, Tala, Ethereum, Nubank, ..."
"Jun 20-22, 2018",3,Zug,Switzerland,Europe,2018 Crypto Valley Conference on Blockchain Technology,40,1040 $,https://www.cryptovalleyconference.com/,"Speakers from Ripple, Swiss Govenment, Kyber Network, Aeternity, Bitcoin Suisse... / Code:CryptoValleyConf20off"
20-Jun-18,1,Tbilisi,Georgia,Asia,Blockchain and Bitcoin Conference Georgia,19,105 $,https://georgia.bc.events/en,"Speakers from: Bixtrim, Golden Fleece, ZenCash, iTuber, Iconiq Lab, Shelf.Network, ..."
"Jun 20-21, 2018",2,Singapore,Singapore,Asia,"Blockchain for Finance Conference, APAC",37,1695 $,https://blockchainapac.fintecnet.com/,"Speakers from: ​J.P. Morgan, Northern Trust, ​Standard Chartered, HSBC, Deutsche Bank, IBM, Stellar, Ripple, TenX, Utrust, Pundi X, Linklaters, ..."
21-Jun-18,1,London,UK,Europe,Internet of Agreements conference,11,FREE,http://internetofagreements.com/space,"Blockchain and business in space. From commercial satellite launches through to space tourism, asteroid mining, and even Mars exploration and eventual human settlement."
21-Jun-18,1,Auckland,New Zealand,Oceania,"Blockchain Summit, Auckland",N/A,499 $,http://www.unicomlearning.com/Blockchain_Summit_Auckland_2018/,"Diverse range of experts who will discuss all the opportunities, challenges and exciting possibilities in innovation and disruption that can be leveraged in Auckland using this technology. "
"Jun 21-23, 2018",3,Singapore,Singapore,Asia,CoinAgenda Asia,N/A,"2,990 $",http://www.coinagenda.com/,"Current speakers N/A yet. Past speakers : Brock Pierce, Harry Dent, speakers from Sense, Decentra Fund, Crowdfunder.co, BlockV,..."
22-Jun-18,1,London,UK,Europe,Blockchain Technology Masterclass - 1 Day Training Workshop,1,600£,https://www.eventbrite.co.uk/e/blockchain-technology-masterclass-1-day-training-workshop-tickets-40526641275,"This is a practical hands-on workshop designed for busines rather than a technical focued learners intended for learners wishing to gain an understanding of Blockchain core concepts, architecture, business efficiency and real business user cases "
23-Jun-18,1,"SF, CA",USA,North America,NAC3 - Bitcoin & Blockchain Conference,12,319.45 $,https://www.eventbrite.com/e/nac3-bitcoin-blockchain-conference-tickets-44928588618,"Speakers from: Crypto Bobby, Coin Mastery, Achain, Crypto Lark, Innovator Fund, Splash Factory, Huffington Post, Decipher Capital, Rubicon Venture Capital, Crypto CPA Consultants, ..."
23-Jun-18,1,London,UK,Europe,International CryptoCurrency LIVE Event,2,Free,https://www.eventbrite.ie/e/international-cryptocurrency-live-event-tickets-45841915403?aff=eac2,Free event - The International Cryptocurrency Live Event is an exciting event to educate you on investing and trading cryptocurrency with the use of Artificial Intelligence Robots giving you high returns with no knowledge required.
25-Jun-18,1,"Palo Alto, CA",USA,North America,F50 Synergy Blockchain Summit 2018,N/A,From 635.50 $,https://www.eventbrite.com/e/f50-synergy-blockchain-summit-2018-tickets-46040588640?aff=es2,"The summit will feature over 50 global leaders from the top law firms, CPA’s, and VC’s in the investment ecosystem, along with extraordinary blockchain companies, and 250+ attendees from the venture capital and global investment community."
25-Jun-18,1,London,UK,Europe,"D3: Discover, Discuss, Disrupt - Blockchain",5,Free,https://www.eventbrite.co.uk/e/d3-discover-discuss-disrupt-blockchain-tickets-46315312346?aff=eac2,"2 hour lunch / Confirmed speakers include Max Lomuscio, Head of Growth at DOVU; John Hall, Head of Strategy & Portfolio at Atos International; Irra Ariella Khi, CEO of VChain Technology; and Robert Learney, Head of Technology for Distributed Ledger Technologies at the Digital Catapult."
25-Jun-18,1,Dubai,UAE,Middle East,Blockchain Investment Technology Conference Middle East,14,"Sold out (3,500 $ VIP)",https://www.bitconme.com/,"Speakers from: Irish Tech News, Quantum Media Group, Wixlar Coin, aXpire, ASAAS, Evareium, Ternio, ..."
"Jun 25-27, 2018",3,Sofia,Bulgaria,Europe,Webit/Festival Europe 2018 ,400,240 EUR,https://www.webit.org/festival/2018/index.php,"Speakers from Cisco, Hanson Robotics, Google, Mastercard, EU parliament; hardly any well known blockchain companies"
"Jun 25-28, 2018",4,Montreal,Canada,North America,ZconO,N/A,900 USD,https://z.cash.foundation/zcon/,This inaugural event aims to encourage collaboration of privacy projects inside and beyond the Zcash ecosystem in a focused setting and to scale future events as the community grows.
"Jun 25-26, 2018",2,Frankfurt,Germany,Europe,World Blockchain Summit Frankfurt,41,From 795 $,https://frankfurt.worldblockchainsummit.com/,"Speakers from Estonian or Dutch governments, EU parliament, IOTA, plenty of venture companies"
28-Jun-18,1,"Dallas, TX",USA,North America,Blockchain in Shared Services,10,"1,199 $",https://blockchainsharedservices.iqpc.com/,"Speakers from: PepsiCo, Microsoft, EndorCoin, Bank of America, IBM, Sapient, US Department of the Treasury, ..."
"Jun 26-27, 2018",2,Hong Kong,China,Asia,EmTech Hong Kong ,27,From 680 $,https://emtechhk.com/,"Speakers from: Vyond, Kambria, Qualcomm, CXA Group, University of Portsmouth, Microsoft, Siemens, Trace Genomics, VMware, ..."
"Jun 26-27, 2018",2,Tokyo,Japan,Asia,Japan Blockchain Conference,11,50 $,http://japan-blockchain-c.com/,"Speakers from: Ethereum, IOTA, CoinTelegraph, Sylo Protocol, BankEx Lab, Centrality, ..."
"Jun 26-27, 2018",2,San Francisco,USA,North America,Blockchain Connect,42,From 626.92 $,http://www.goblockchainconnect.com/,"Speakers from: Civic, Qtum, Bitcoin Foundation, INBlockchain, Ripple, 500 Startups, NKN, Onchain, Huobi Group, Aelf, Linkedin, ..."
"Jun 26-27, 2018",2,London,UK,Europe,Blockchain Summit London,120,840£,http://blockchainsummitlondon.com/,"Mostly financial companies + crypto such as Blockchain dutch govenment, Bitcoin magazine, PwC Blockchain..."
6-Jun-18,1,Nice,France,Europe,"Blockchain, Decentralisation, Smart Contracts",N/A,Free,https://www.meetup.com/French-Riviera-Decentralized-Blockchain-Bitcoin-Ethereum/events/250417025/,Monthly meetup
27-Jun-18,1,Toronto,Canada,North America,Empire Startups Fintech Conference,37,835 CA$,https://www.empirefintechconference.com/pages/ny2019,"Speakers from: Stash, Oak, Reciprocal Ventures, LendUp, Techstars, FinTech Sandbox, N26, Reuters, One Zero Capital, ..."
27-Jun-18,1,NYC,USA,North America,Crypto Evolved,45,699 $,https://crypto-evolved.com/,"Speakers from: DRW, Wall Street Blockchain Alliance, Coindesk, ViableMkts, Circle, FinTech Collective, Aite Group, Libra, Dentons US LLP, ..."
"Jun 27-29, 2018",3,"Black Hawk, CO",USA,North America,CX4 Conference ,9,"1,499 $ ",https://cx4co.com/#aboutStart,"Speakers from: Stealth Grid, Powered by Neureal, WENN Digital, PMP, BitMinutes, Uppermost Company, ..."
"Jun 27-28, 2018",2,Amsterdam,Netherlands,Europe,Blockchain Expo Europe,54,1100 EUR (approx),https://blockchain-expo.com/europe/,"For 15% off use  BRAVENEWCOIN15
Thousands of attendees.
""Europe’s largest established business Blockchain event"""
28-Jun-18,1,NYC City,USA,North America,Capital Raising & Investing in the Age of Blockchain,12,From 96.02 $,http://blockworksgroup.io/,For 25% discount use BNCexclusive
"Jun 28-29, 2018",2,Hamburg,Germany,Europe,Distribute 2018 Blockchain Konferenz,30+,299 EUR,http://www.distribute-conference.com/,"Speakers from Ethereum, Cardano, Dash, Lisk, Solaris Bank, Factom, venture companies..."
"Jun 28-29, 2018",2,Gibraltar,British Territory in Spain,Europe,TokenMarket 2018 ,18,From 749 EUR ,https://tokenmarket.net/conference-2018/home,"Speakers from: Virtual Capital Ventures, BnkToTheFuture, Newtown Partners, TokenMarket, Civic, Rivetz, Coinfirm, Hosho, FirstBlood, ..."
29-Jun-18,1,Amsterdam,Netherlands,Europe,Blockchain: Rethink Trust 2018,17,From 399 EUR,https://rethinktrust.org/,"Speakers from: IBM, ING, Bosch, We.Trade, Coinbase, Bankex, ..."
29-Jun-18,1,Basel,Switzerland,Europe,The 1st Crypto & Blockchain Seminar in Basel,N/A,349 CHF,https://www.eventbrite.com/e/the-1st-crypto-blockchain-seminar-in-basel-tickets-45782799586,This cource will help you to get a functional and economic understanding crypto-currencies. It explores the economic implications of cryptocurrencies and provides overview of the legal landscape. It introduces to the opportunities this technology represents for entrepreneurs.
29-Jun-18,1,London,UK,Europe,Creatives: Unblocked,14,300£,https://unblockedevents.com/events/creatives-unblocked/,"Speakers from: hearo.fm, Blokur, JAAK, BitTicket, Big Couch,..."
30-Jun-18,1,Madrid,Spain,Europe,CriptoMad,N/A,50 EUR,http://criptomad.com/,Congress with activities and practical workshops on blockchain and basic and advanced cryptocurrencies.
1-Jul-18,1,London,UK,Europe,Crypto University - Blockchain Prosperity,5+,22.15£,https://www.eventbrite.co.uk/e/crypto-university-blockchain-prosperity-tickets-45828581521?aff=eac2,Learn from our guest speakers to get an inside track on the ever changing Blockchain space and how it can bring the majority of the world out of poverty.
"Jul 1-2, 2018",2,Seoul,S Korea.,Asia,Chainers 2018,27,570 $,http://www.blockkarneval.com/en/,"Speakers from: Smart Valor, NEO, Bithump, Bitcoin Group, Circle, Bloq, Bittrex, Icon, Huobi.pro, Korbit, ..."
"Jul 2-4, 2018",3,Zug,Switzerland,Europe,Crypto Explorers,N/A,1250 $,https://cryptoexplorers.org/,"An elite group of passionate and motivated individuals to come together for a 3-day, immersive learning experience in Zug, Switzerland. 2 days in Zug and 1 day in Zurich. 15+ meetings with Crypto Valley-based entrepreneurs. Meet-up of 120+ local crypto-enthusiasts."
"Jul 2-3, 2018",2,Tokyo,Japan,Asia,Asia Blockchain Congress,12,N/A,http://www.szwgroup.com/ibdac-tokyo-en/,"Speakers from: Geekbeans Capital, Ripple, Taoshi Capital, Government Blockchain AssociationPresident of Tokyo Chapter, ..."
"Jul 4-5, 2018",2,Tokyo,Japan,North America,2018 TokenSky - Blockchain Conference Tokyo Session,43,From 3000 YUAN,http://www.tokensky.net/,"Speakers from: TokenSky, Yunbi, OOW inc, Yibite, Eagles Fund, FinTech4Good, Iterduo, ..."
6-Jul-18,1,London,UK,Europe,Crypto Economy ICO 2018,13,295 EUR,https://www.thecryptoeconomy.com/london-july/,"Speakers from: CryptoLaw Partners, Becon, RightShare, TokenMarket, Chainstarter, Token Communities, ..."
6-Jul-18,1,Brisbane,Australia,Australia,BLOCKConscious Summit - Brisbane 2018,29,From 587 $,https://www.eventbrite.com.au/e/blockconscious-summit-brisbane-2018-tickets-43215334228?aff=es2,"Speakers from: Ethereum Network, CanYa Coin, KPR Coin, Blueblock, Travel by Bit, ..."
6-Jul-18,1,Zug,Switzerland,Europe,TechCrunch Sessions: Blockchain 2018,12,Sold Out (495 CHF),https://techcrunch.com/events/tc-sessions-blockchain-2018/,"Speakers from: Vitalik Buterin, Melonport, Coinbase, Consensys, Enigma,Binance, Omise, ..."
"Jul 6-10, 2018",4,St Petersburg,Russia,Europe,D10e Saint Petersburg,8+,N/A,http://d10e.biz/saint-petersburg-2018/,"Speakers from: GigaWatt, Cryptonomos, TaaS, KrowdMentor, Bancor, ..."
9-Jul-18,1,Berlin,Germany,Europe,Crypto Space,17,N/A,http://cryptospace.berlin/,"Speakers from: NEO, Viewfin, Metaverse, NEM Foundation, Bitwala, Crypto Storage AG, Lisk Foundation, Textbook ventures, Brickblock, Luxchain, ..."
"Jul 10-11, 2018",2,NYC,USA,North America,Invest 2018 Innovations in Investing,105,"1,595 $",https://www.financial-planning.com/conference/invest-2018,"Speakers from: Pefin, JPMogran Chase, Fountain, ReD Associates, D-Wave, ParameterInsights, Inspiron Investment Consultants, ..."
11-Jul-18,1,"SF, CA",USA,North America,"Women in Crypto and Blockchain Panel & Mixer @Google, SF",N/A,17.37 $,https://www.eventbrite.com/e/women-in-crypto-and-blockchain-panel-mixer-google-sf-tickets-45866342465?aff=es2,Inspiring and informative evening where we will we feature incredible women who will share the different roles they play in this exciting industry.
"Jul 11-13, 2018",3,"Atlantic City, NJ",USA,North America,Blockchain World Conference,15,From 746.25 $,https://bwcevent.com/,"Speakers from: McAfee Associates, MEScience, Deedcoin, Aziza Coin, Rush Cole Capital, OpenTable, ..."
"Jul 12-15, 2018",4,Moscow,Russia,Europe,D10e Moscow,8+,N/A,http://d10e.biz/moscow-2018/,"Speakers from: GigaWatt, Cryptonomos, TaaS, KrowdMentor, Bancor, ..."
"Jul 12-13, 2018",2,Seoul,South Korea,Asia,Korea Blockchain Summit,19,N/A,https://www.gbf.world/kbs,"Speakers from: LDJ Capital, Veritaseum, X8 Currency, KCX Exchange, Future1Coin, Quick X, ..."
"Jul 13-15, 2018",3,"Waterloo, ON",Canada,North America,Blockchain Super Conference,19,From 99 $,https://blockchainsuperconference.com/,"Speakers from: Pegasus Fintech, Epoch Times, Crypto Bazar, Hyperledger, Midex, BTCDraft, TWIsM, Ask The Shopologist, ..."
"Jul 13-15, 2018",3,"Irving, TX",USA,North America,BitBlockBoom Conference,12,252 $,https://bitblockboom.com/,"Speakers from: Adamant Capital, Satoshi Nakamoto Institute, Crypto Unicorn Money, Roger Wilco Agency, CriptoMonedas TV, ..."
14-Jul-18,1,Yangon,Myanmar,Asia,Myanmar Blockchain Forum 2018,13,N/A,http://myanmarblockchain.io/,"Speakers from: Silk Krypto, KBZ Bank Limited, IOTA, Myanmar Microfinance Association, Zico Law, MD of ThitsaWorks, ..."
15-Jul-18,1,"Portland, OR",USA,North America,Discover Blockchains,N/A,200 $ (approx) ,https://discoverblockchains.com/,Learn about what’s happening in the rapidly growing world of blockchains and cryptocurrency from industry specialists involved in it every day.
15-Jul-18,1,Singapore,Singapore,Asia,Crypto Asia Show,N/A,Sold Out (From 388 $) ,https://www.eventbrite.sg/e/crypto-asia-show-tickets-45228922926?aff=es2,"Crypto Asia Show is focused on the business and technology of tokenization and how it revolutionizes luxury lifestyle. Attendees will gain a wealth of insights and information about the state of the token-based economy, networking with over 1000 senior level thought leaders, and shop for their favourite luxury items with crypocurrencies."
"Jul 15-17, 2018",3,Valetta,Malta,Europe,CoinAgenda Europe,70,"From 2,490 $",http://coinagenda.com/malta.html,"Current speakers N/A yet. Past speakers : Brock Pierce, Harry Dent, speakers from Sense, Decentra Fund, Crowdfunder.co, BlockV,..."
"Jul 15-22, 2018",8,Vilnius,Lithuania,Europe,Unconference: Blockchain + Entrepreneurship + Music,N/A,Free,https://pillarproject.io/unconference2018/,Unagenda means the conference is yours to shape. Every morning we meet and vote on how the day will evolve without commiting in advance. This way we stay flexible and the week is shaped by attendees.
"Jul 16-17, 2018",2,Johannesburg,South Africa,Africa,The Global Blockchain Congress,24,From 200 $ ,http://www.globalblockchaincongress.com/,"Speakers from: KuBitX, BitPesa, ifileme, BitHub Africa, Trona Capital, ProsperiProp, Status.im, Monero, ..."
"Jul 16-20, 2018",5,Seoul,South Korea,Asia,Korea Blockchain Week 2018,100+,From 400 $,https://koreablockchainweek.com/,"Korea Blockchain Week is Asia’s most prominent blockchain conference, happening for the first time in Seoul, South Korea."
17-Jul-18,1,London,UK,Europe,Blockchain Technology 2018 London,1,"1,278.59£",https://www.eventbrite.co.uk/e/blockchain-technology-2018-london-tickets-45973345514?aff=eac2,Workshop / Training by Sol Steinberg
"Jul 17-18, 2018",2,Seoul,South Korea,Asia,Beyond Blocks Seoul,16,700 $ (approx),https://beyondblocks.com/summit/seoul/,USE BRAVE20 for 20% discount
"Jul 17-18, 2018",2,Singapore,Singapore,Asia,World Blockchain Conference,,100 $,http://www.wbconference.net/,"Speakers from: BitGuild, Genobank, Alto, nChain, Baanx, World Blockchain Council, Blockchain Founders Fund, ..."
18-Jul-18,1,Paris,France,Europe,Blockchain and Bitcoin Conference France,6+,500 EUR,https://france.bc.events/en,"Speakers from: Hidone, Adel Ecosystem, Microsoft, Chaineum, IBM Cloud France, Investig.io"
"Jul 19-20, 2018",2,Porto,Portugal,Europe,Anarchaportugal ,18,199 Eur,https://anarchaportugal.com/,"Speakers from: Bueno Capital, Liberland, Residence Investor, Ethereum Foundation, Blockchain WTF, Decentranet, Bitnation, Neureal, ..."
"Jul 19-20, 2018",2,"SF, CA",USA,North America,Distributed 2018,36,649 $,http://2018.distributed.com/,"Speakers from: Juzix, Mattereum, MadHive, Let's Talk Bitcoin, Echo, CoinList, BitMEX, Fenbushi Capital, Circle, Poet, DigiCash, ..."
"Jul 19-20, 2018",2,Singapore,Singapore,Asia,World Blockchain Summit Singapore,32,From 595 $,https://singapore.worldblockchainsummit.com/,"Speakers from: FinFabrik, GSX Group, Forbes, Mattereum, ConsenSys, Kraken, AMBlockchain, ..."
23-Jul-18,1,Dubai,UAE,Middle East,Dubai International Blockchain Summit,38,N/A,https://dibs.ae/,"Speakers from: CUBEINT South Korea, CryptoCoin.News, Patron, Crypterium, Blocksale, NKD Technologies, Gladius, Vezt, Pundi X, Arcblock, ..."
"Jul 24-25, 2018",2,NYC,USA,North America,Crypto Funding Summit – Security Tokens & Icos,50+,507 $ (approx),https://www.eventbrite.com/e/crypto-funding-summit-security-tokens-icos-tickets-44686557697?aff=es2,"Crypto Funding Summit is a two-day event being curated by crypto enthusiasts, with an audience of about 500 people. Crypto hedge funds, crypto investors, ICOs, blockchain enthusiasts from all over the world will get connected at the Crypto Funding Summit. "
"July 24-25, 2018",2,Porto,Portugal,Europe,Legalize Blockchain,30,149 Eur,https://legalizeblockchain.com/,"Speakers from: University of Vienna, EY Law, No Legal Tech, Social Lex, Baker McKenzie, Marketingnize, TeamBlockchain Ltd, MakerDAO, ..."
"Jul 26-27, 2018",2,Washington DC,USA,North America,3rd Annual Blockchain Conference 2018,N/A,From 249 $,https://www.blockchaindc.com/,"Our aim is to bring senior figures in finance, tech, government, venture capital and start-ups into a room and discuss Blockchain/DLT beyond Bitcoin."
27-Jul-18,1,Singapore,Singapore,Asia,Singapore Blockchain Conference,3,From 499 $,https://www.eventbrite.com/e/singapore-blockchain-conference-tickets-46399032756?aff=es2,"Speakers from: SwipeCrypto, IBM, Xinfin.io"
,,Bangkok,Thailand,Asia,The Internet Of Value,30+,From 249 $,https://hybridsummit2018.com,
"Jul 28-31, 2018",3,Nicosia,Cyprus,Europe,D10e Cyprus,8+,N/A,http://d10e.biz/cyprus-2018/,"Speakers from: GigaWatt, Cryptonomos, TaaS, KrowdMentor, Bancor, ..."
"Jul 29-30, 2018",2,Manama,Bahrain,Middle East,World Blockchain Congress,22,N/A,http://bahrain.wbcseries.com/,"Speakers from: eCharge.work AG, Finterra, Blockchain Executive Authority - Bahrain, Decent, Angivest Ventures, Al Tamimi & Company, Auxesis Group, ..."
"Jul 29-31, 2018",3,NYC,USA,North America,Affiliate Summit East 2018 Conference & Tradeshow,60+,From 249 $,http://affiliatesummit.com/events/ase18/,"Speakers from: Tune, AppPresser, Bruce Clay, WP Engine, Tronc Inc, Red 21 Network, Daft Labs, Ten Golden Rules, ..."
"Jul 30 - Aug 1, 2018",3,Villanova,USA,North America,PhillyTech365,56,From 420 $,https://phillytech365.com/,"Speakers from: Magenic, .Net Community, Microsoft, ..."
"Jul 31 - Aug 2, 2018",3,NYC,USA,North America,2nd Annual Fintech Week: Nyc 2018,N/A,From 349 $,https://newyork.fintechweek.com/,2018 is the 5th year that we've been running Fintech Week and the 2nd year we're bring bringing the multi-day conference / exhibition / workshop / meetup concept to NYC.
3-Aug-18,1,Mumbai,India,Asia,Blockchain Summit Mumbai,7,From 6000 INR,http://www.unicomlearning.com/Blockchain_Summit_Mumbai-2018/,"Speakers from: uTrade Solutions, Cashaa, GreenCoinX, GB Blockchainer, BlobCity,..."
"Aug 3-4, 2018",2,"Boulder, CO",USA,North America,DISCON: Distributed Consensus,11,From 250 $,https://discon.io/,"Speakers from: IQLUSIONINC, Qtum, DCNTRAL TAEKION, Bluebird Botanicals, LOGRHYTHM, GITCOIN, BLOCLAB ENTERPRISES, ..."
"Aug 3-4, 2018",2,Hyderabad,India,Asia,International Blockchain Congress,26,149 $,https://www.enbloc.media/,"Speakers from: Ecash, Draper Venture Network, Bitcoin.com, Binance, Shoppers Stop, Nasscom Foundation, Binary Financial, IBM, Icon, Keynote,..."
"Aug 4-5, 2018",2,Pune,India,Asia,"Maharashtra - Blockchain, Fintech, ICO, Cryptocurrency ",N/A,"280 $
",http://mahabfic.com/,"MAHAbfic.com (Maharashtra – Blockchain, Fintech, IPCO & Crypto currency) is established as a platform to promote investment in the State of Maharashtra as the THE Ideal Destination for investment in Blockchain, Fintech, IPCO, Crypto currency."
"Aug 6-8, 2018",3,Los Angeles,USA,North America,N.A.Sports And Blockchain,10+,845.60 $,http://www.nasbc.co/,"Speakers from: Sustany Capital, SportVEST VC Fund, USGFA /PGFA, Celsuis Network, LDJ Capital, ..."
13-Aug-18,1,Mauritius,Mauritius,Africa,Mauritius Blockchain Conference,N/A,202.99 $,https://www.eventbrite.com/e/mauritius-blockchain-conference-tickets-46314845951,The East African island nation of Mauritius is seeking to brand itself as a regional haven for blockchain innovation.
"Aug 13-16, 2018",1,San Francisco,USA,North America,2nd Annual Fintech Week 2018 SV,N/A,300 $ (approx),https://www.siliconvalley.fintechweek.com/,"We pride ourselves on bringing together the Fintech ecosystem, including investors, large banks, consultancies, start-ups, academics, government and innovators."
"Aug 14-15, 2018",2,Washington D.C.,USA,North America,Blockchain Health,33,"1,495 $",https://blockchainhealthcaresummit.com/washington-dc-2018/,"Speakers from: Kaiser Permanente, Nationwide Children’s Hospital, Arizona Care Network, Optum, Humana, CAQH, IBM, McDermott Will & Emery LLP, ..."
"Aug 14-15, 2018",2,NYC City,USA,North America,CryptoBlockCon,52,From 395 $,http://www.cryptoblockcon.com/,"Speakers from: Blockchain Capital, World Tokenomic Forum, Sensay, OPSkins.com, Microsoft, HelloSugoi, Expert DOJO, Evercoin, Luna Capital, ..."
"Aug 14-16, 2018",3,Toronto,Canada,North America,Blockchain Futurist Conference,N/A,299 $ ,https://futuristconference.com/,"Past speakers were / from: Vitalik Bulerin, Charlie Lee (Litecoin), Cardano, Overstock.com, Polymath, Bloq, BitFury, Zap, CryptoChics, Shapeshift, Factom, ..."
"Aug 16-17, 2018",2,Kuala Lumpur,Malaysia,Asia,Bloconomic - Blockchain Economic Summit,15,289 $ ,http://bloconomic.com/,"Speakers from: Hatcher+, CoinStreet, Override Labs, Altcoin Buzz, TinkBig Ventures, ..."
17-Aug-18,1,Vienna,Austria,Europe,BlockVienna,N/A,N/A,https://www.blackarrowconferences.com/blockvienna.html,This conference is organised for the sole purpose of education to explore the opportunities and challenges in the blockchain and cryptocurrency domain.
"Aug 17-18, 2018",2,"Santa Barbara, CA",USA,North America,Decentralized Cryptocurrencies and Blockchains,10,600 $,https://crypto.iacr.org/2018/affevents/cryptocurrencies/page.html,"Speakers: Vitalik Bulerin, Mic Bowman (Intel), David Mazières (Stanford University / Stellar), Joshua Slayton (Coinlist), Zooko Wilcox (Zcash), ..."
18-Aug-18,1,"Philadelphia, PA",USA,North America,CryptoCoinCon,5+,From 74.95 $,http://www.cryptocoincon.com/,"Speakers from: Thompson Bukher LLP, KILLER WHALE, PRINCE, CRYPTODALE, Black River Crypto, Windfall Mining, ..."
"Aug 20-21, 2018",2,Las Vegas,USA,North America,BlockShow Americas 2018,80+,"1,400$",https://blockshow.com,
21-Aug-18,1,"Seattle, WA",USA,North America,Blockchain Conference Seattle 2018,N/A,From 249 $,https://www.blockchain-seattle.com/,USE BNC20 for 20% Off / 29th Blockchain Conference & 1st in Seattle. 
22-Aug-18,1,"LA, CA",USA,North America,2018 US China Blockchain and Digital Currency Conference,23,From 495 $ ,https://www.blockchainchinaconnect.com/,"Speakers from:Bitcoin Gold, Mindrock, Wil Capital, Mulechain, VerifyInvestor.com, Bodhi, ... / USE bravenewcoind10for 10% Off"
"Aug 24-25, 2018",2,Shanghai,China,Asia,Blockchain Technology Summit,30+,From 5440 CNY,http://blc-summit.com/en,"Speakers from: PPTV, BlueRun Ventures, Iconiq Lab, MindWorks Ventures Investment, Elastos, RoadLaunch, RuffChain, Nebulas, ..."
28-Aug-18,1,Singapore,Singapore,Asia,Blockchain Summit Singapore,60+,Free,http://blockchainsummitsingapore.com/,"Speakers from: Bank of America, Thai Union, Thomson Rheuters, Tech Wire Asia, National University of Singapore, Vyral, HelloSugoi, ..."
31-Aug-18,1,Bangkok,Thailand,Asia,Block Hedge 2018 ,9,From 49 $,https://www.block-hedge.com/,"Speakers from: Komodo Platform, Zilliqa, QUOINE, Loyakk, QRC Group, Invictus, ..."
