{
    "environment": "dev", 
    "prod": {
        "domain": "coindesk.com", 
        "user_data_dir": "", 
        "url": "https://www.coindesk.com/events/consensus-2018/agenda/",     
        "video_url": "https://www.coindesk.com/events/consensus-2018/videos/",
        "sponsors_url": "https://www.coindesk.com/events/consensus-2018/sponsors/",
        "airtable_base_key_main": "appOZeEYQEgTXYzN2",
        "airtable_base_key__": "appIghlQBX7IhgNrD",
        "airtable_base_key": "apph7IMXvZ80XzzHl",
        "airtable_api_key": "keyB0LVMllIUlnb2T",    
        "sessions_api": "https://api.bizzabo.com/api/v2/agenda/events/{event_id}/sessions?count=50&offset={offset}",
        "session_detail_api": "https://api.bizzabo.com/api/v2/agenda/events/{event_id}/sessions/{session_id}",
        "session_url": "https://events.bizzabo.com/{event_id}/agenda/session/{session_id}",
        "speakers_api": "https://api.bizzabo.com/api/v2/agenda/events/{event_id}/speakers",
        "speaker_detail_api": "https://api.bizzabo.com/api/v2/agenda/events/{event_id}/speakers/{speaker_id}",
        "speaker_url": "https://events.bizzabo.com/{event_id}/agenda/speakers/{speaker_id}",
        "settings_api": "https://api.bizzabo.com/api/v2/agenda/events/{event_id}/settings",
        "twitter_url": "https://twitter.com/{twitterHandle}",
        "video_player_api": "https://cdn.jwplayer.com/v2/playlists/{player_id}",        
        "bizzabo_sponsors_url": "https://events.bizzabo.com/{event_id}/page/{sponsor_id}/sponsors",
        "vm": "m01",         
        "download_folder": "",
        "email": {
            "to_addr_list": [
                "tubnd.younet@gmail.com"
            ], 
            "user": "", 
            "pass": "", 
            "allow_send": 0, 
            "cc_addr_list": [], 
            "message": "\nSpider closed!", 
            "subject": "Spider closed!"
        }, 
        "path_to_chromedriver": "chromedriver.exe",
        "db": {
            "DB_HOST": "localhost",
            "DB_USER": "root",
            "DB_PASS": "123456",
            "DB_NAME": "eunjee",
            "DB_TABLE": "events_eu"
        }
    }, 
    "dev": {
        "domain": "keynote.ae", 
        "user_data_dir": "", 
        "url": "https://keynote.ae/",     
        "video_url": "https://www.coindesk.com/events/consensus-2018/videos/",
        "sponsors_url": "https://www.coindesk.com/events/consensus-2018/sponsors/",
        "airtable_base_key_main": "appOZeEYQEgTXYzN2",
        "airtable_base_key": "appIghlQBX7IhgNrD",
        "airtable_base_key__": "apph7IMXvZ80XzzHl",
        "airtable_api_key": "keyB0LVMllIUlnb2T",    
        "sessions_api": "https://api.bizzabo.com/api/v2/agenda/events/{event_id}/sessions?count=50&offset={offset}",
        "session_detail_api": "https://api.bizzabo.com/api/v2/agenda/events/{event_id}/sessions/{session_id}",
        "session_url": "https://events.bizzabo.com/{event_id}/agenda/session/{session_id}",
        "speakers_api": "https://api.bizzabo.com/api/v2/agenda/events/{event_id}/speakers",
        "speaker_detail_api": "https://api.bizzabo.com/api/v2/agenda/events/{event_id}/speakers/{speaker_id}",
        "speaker_url": "https://events.bizzabo.com/{event_id}/agenda/speakers/{speaker_id}",
        "settings_api": "https://api.bizzabo.com/api/v2/agenda/events/{event_id}/settings",
        "twitter_url": "https://twitter.com/{twitterHandle}",
        "video_player_api": "https://cdn.jwplayer.com/v2/playlists/{player_id}",        
        "bizzabo_sponsors_url": "https://events.bizzabo.com/{event_id}/page/{sponsor_id}/sponsors",
        "vm": "m01",         
        "download_folder": "",
        "email": {
            "to_addr_list": [
                "tubnd.younet@gmail.com"
            ], 
            "user": "", 
            "pass": "", 
            "allow_send": 0, 
            "cc_addr_list": [], 
            "message": "\nSpider closed!", 
            "subject": "Spider closed!"
        }, 
        "path_to_chromedriver": "chromedriver.exe",
        "db": {
            "DB_HOST": "localhost",
            "DB_USER": "root",
            "DB_PASS": "123456",
            "DB_NAME": "eunjee",
            "DB_TABLE": "events_eu"
        }
    }
}